Processing Clinical Trial Analysis Data with the {forceps} Package
…
.panel[.panel-name[Output 1]

```
## [1] "ae"        "biomarker" "demo"
```
]

.panel[.panel-name[Output 2]

```
## # A tibble: 4,879 x 12
##     PtID AEDuration AE    AEType Grade AETreat AEDay WorseCTC Sex   Race  osdays
##    <dbl> <chr>      <chr> <chr>  <chr> <chr>   <dbl> <chr>    <chr> <chr>  <dbl>
##  1  1003 4          BURN… NERVO… 1     0          27 1        2     1         NA
##  2  1003 4          CONS… GASTR… 2     1           4 2        2     1         NA
##  3  1003 .          DEPR… PSYCH… 2     0          66 2        2     1         NA
##  4  1003 .          BACK… MUSCU… 2     1          27 2        2     1         NA
##  5  1003 3          DYSU… RENAL… 2     1           1 2        2     1         NA
##  6  1003 26         SKIN… SKIN … 1     0           5 1        2     1         NA
##  7  1003 7          HEAD… NERVO… 1     0           3 1        2     1         NA
##  8  1003 1          HAEM… RESPI… 1     1           1 1        2     1         NA
##  9  1003 83         RHIN… INFEC… 1     1          14 1        2     1         NA
## 10  1003 2          MYAL… MUSCU… 2     1           3 2        2     1         NA
## # … with 4,869 more rows, and 1 more variable: os_censor <dbl>
```
]

.panel[.panel-name[Output 3]

```
## # A tibble: 558 x 13
##    TP53   PtID Sex   Race  Smoking  ECOG PriorResp pfsdays osdays    DX   Age
##    <chr> <dbl> <chr> <chr> <chr>   <dbl> <chr>       <dbl>  <dbl> <dbl> <dbl>
##  1 "2"    1003 2     1     1           1 2             101    233     3    51
##  2 "2"    1005 1     1     1           1 4              78    184     2    44
##  3 "2"    1006 2     1     1           1 2             253    333     2    22
##  4 ""     1009 2     1     3           1 2             130    643     3    44
##  5 ""     1014 2     1     1           1 4              41    116     1    76
##  6 "3"    1018 1     1     1           1 2             194    423     3    35
##  7 ""     1023 1     1     1           1 2              49    337     1    73
##  8 ""     1025 2     1     0           1 4              95    589     2    71
##  9 ""     1030 1     1     3           1 4             351    688     2    20
## 10 ""     1033 1     1     3           1 5              33    125     1    55
## # … with 548 more rows, and 2 more variables: osind <dbl>, pfsind <dbl>
```
]

.panel[.panel-name[Output 4]

```
## # A tibble: 558 x 18
##    Sex   Race  Smoking  ECOG Refractory PriorResp PriorTrmt BestResp pfsdays
##    <chr> <chr> <chr>   <dbl>      <dbl> <chr>     <chr>        <dbl>   <dbl>
##  1 2     1     1           1          0 2         3                1     101
##  2 1     1     1           1          1 4         2                0      78
##  3 2     1     1           1          1 2         99               1     253
##  4 2     1     3           1          0 2         2                0     130
##  5 2     1     1           1          1 4         99               0      41
##  6 1     1     1           1          1 2         2                0     194
##  7 1     1     1           1          1 2         99               0      49
##  8 2     1     0           1          0 4         1                0      95
##  9 1     1     3           1          1 4         1                0     351
## 10 1     1     3           1          1 5         1                0      33
## # … with 548 more rows, and 9 more variables: pfs_censor <dbl>, osdays <dbl>,
## #   os_censor <dbl>, Platinum <dbl>, Paclitax <dbl>, DX <dbl>, Age <dbl>,
## #   Subject <chr>, PtID <dbl>
```
]

]

---

# <br> What do we want the data to look like?

<br>

```
## # A tibble: 558 x 10
##     PtID ae     TP53  osdays osind pfsind Refractory PriorTrmt BestResp Platinum
##    <dbl> <list> <fct>  <dbl> <dbl>  <dbl>      <dbl> <fct>        <dbl>    <dbl>
##  1  1003 <tibb… "2"      233     0      0          0 3                1        0
##  2  1005 <tibb… "2"      184     0      1          1 2                0        1
##  3  1006 <tibb… "2"      333     0      0          1 99               1        1
##  4  1009 <tibb… ""       643     1      1          0 2                0        0
##  5  1014 <tibb… ""       116     0      0          1 99               0        1
##  6  1018 <tibb… "3"      423     0      0          1 2                0        1
##  7  1023 <tibb… ""       337     0      0          1 99               0        1
##  8  1025 <tibb… ""       589     0      0          0 1                0        0
##  9  1030 <tibb… ""       688     0      0          1 1                0        1
## 10  1033 <tibb… ""       125     0      0          1 1                0        1
## # … with 548 more rows
```
…
.panelset[

.panel[.panel-name[R Code]

```r
contras <- contradictions(ds, on = "PtID")
contras
```
]

.panel[.panel-name[contras[1]]

```
## $osdays
## # A tibble: 558 x 4
##     PtID    ae biomarker  demo
##    <dbl> <dbl>     <dbl> <dbl>
##  1  1003    NA       233   233
##  2  1005   184       184   184
##  3  1006   333       333   333
##  4  1009   643       643   643
##  5  1014   116       116   116
##  6  1018   423       423   423
##  7  1023   337       337   337
##  8  1025   589       589   589
##  9  1030   688       688   688
## 10  1033   125       125   125
## # … with 548 more rows
```
]

.panel[.panel-name[contras[2]]

```
## $os_censor
## # A tibble: 558 x 3
##     PtID    ae  demo
##    <dbl> <dbl> <dbl>
##  1  1003    NA     1
##  2  1005     1     1
##  3  1006     1     1
##  4  1009     0     0
##  5  1014     1     1
##  6  1018     1     1
##  7  1023     1     1
##  8  1025     1     1
##  9  1030     1     1
## 10  1033     1     1
## # … with 548 more rows
```
]

.panel[.panel-name[contras[3]]

```
## $Age
## # A tibble: 558 x 3
##     PtID biomarker  demo
##    <dbl>     <dbl> <dbl>
##  1  1003        51    51
##  2  1005        44    44
##  3  1006        22    22
##  4  1009        44    44
##  5  1014        76    76
##  6  1018        35    35
##  7  1023        73    73
##  8  1025        71    71
##  9  1030        20    20
## 10  1033        55    55
## # … with 548 more rows
```
]

]

---

# <br>Second, pivot_wider() on mutiple-variable columns

```r
ds$ae
```

```
## # A tibble: 4,879 x 12
##     PtID AEDuration AE    AEType Grade AETreat AEDay WorseCTC Sex   Race  osdays
##    <dbl> <chr>      <chr> <chr>  <chr> <chr>   <dbl> <chr>    <chr> <chr>  <dbl>
##  1  1003 4          BURN… NERVO… 1     0          27 1        2     1         NA
##  2  1003 4          CONS… GASTR… 2     1           4 2        2     1         NA
##  3  1003 .          DEPR… PSYCH… 2     0          66 2        2     1         NA
##  4  1003 .          BACK… MUSCU… 2     1          27 2        2     1         NA
##  5  1003 3          DYSU… RENAL… 2     1           1 2        2     1         NA
##  6  1003 26         SKIN… SKIN … 1     0           5 1        2     1         NA
##  7  1003 7          HEAD… NERVO… 1     0           3 1        2     1         NA
##  8  1003 1          HAEM… RESPI… 1     1           1 1        2     1         NA
##  9  1003 83         RHIN… INFEC… 1     1          14 1        2     1         NA
## 10  1003 2          MYAL… MUSCU… 2     1           3 2        2     1         NA
## # … with 4,869 more rows, and 1 more variable: os_censor <dbl>
```
…
